<?xml version="1.0" encoding="UTF-8"?>

<svg version="1.2" baseProfile="tiny" width="156.12mm" height="89.07mm" viewBox="2228 4522 15612 8907" preserveAspectRatio="xMidYMid" fill-rule="evenodd" stroke-width="28.222" stroke-linejoin="round" xmlns="http://www.w3.org/2000/svg" xmlns:ooo="http://xml.openoffice.org/svg/export" xmlns:xlink="http://www.w3.org/1999/xlink" xml:space="preserve">
 <defs class="ClipPathGroup">
  <clipPath id="presentation_clip_path" clipPathUnits="userSpaceOnUse">
   <rect x="2228" y="4522" width="15612" height="8907"/>
  </clipPath>
 </defs>
 <defs>
  <font id="EmbeddedFont_1" horiz-adv-x="2048">
   <font-face font-family="Arial embedded" units-per-em="2048" font-weight="normal" font-style="normal" ascent="1852" descent="423"/>
   <missing-glyph horiz-adv-x="2048" d="M 0,0 L 2047,0 2047,2047 0,2047 0,0 Z"/>
   <glyph unicode="y" horiz-adv-x="954" d="M 127,-409 L 107,-240 C 146,-251 181,-256 210,-256 250,-256 282,-249 306,-236 330,-223 350,-204 365,-180 376,-162 395,-117 420,-46 423,-36 429,-21 436,-2 L 33,1062 227,1062 448,447 C 477,369 502,287 525,201 546,284 570,364 599,443 L 826,1062 1006,1062 602,-18 C 559,-135 525,-215 501,-259 469,-318 432,-362 391,-390 350,-417 300,-431 243,-431 208,-431 170,-424 127,-409 Z"/>
   <glyph unicode="x" horiz-adv-x="1006" d="M 15,0 L 403,552 44,1062 269,1062 432,813 C 463,766 487,726 506,694 535,738 562,777 587,811 L 766,1062 981,1062 614,562 1009,0 788,0 570,330 512,419 233,0 15,0 Z"/>
   <glyph unicode="w" horiz-adv-x="1509" d="M 331,0 L 6,1062 192,1062 361,449 424,221 C 427,232 445,305 479,440 L 648,1062 833,1062 992,446 1045,243 1106,448 1288,1062 1463,1062 1131,0 944,0 775,636 734,817 519,0 331,0 Z"/>
   <glyph unicode="u" horiz-adv-x="874" d="M 831,0 L 831,156 C 748,36 636,-24 494,-24 431,-24 373,-12 319,12 264,36 224,66 198,103 171,139 153,183 142,236 135,271 131,327 131,404 L 131,1062 311,1062 311,473 C 311,379 315,316 322,283 333,236 357,199 394,172 431,145 476,131 530,131 584,131 635,145 682,173 729,200 763,238 783,286 802,333 812,402 812,493 L 812,1062 992,1062 992,0 831,0 Z"/>
   <glyph unicode="t" horiz-adv-x="531" d="M 528,161 L 554,2 C 503,-9 458,-14 418,-14 353,-14 302,-4 266,17 230,38 205,65 190,99 175,132 168,203 168,311 L 168,922 36,922 36,1062 168,1062 168,1325 347,1433 347,1062 528,1062 528,922 347,922 347,301 C 347,250 350,217 357,202 363,187 373,176 388,167 402,158 422,154 449,154 469,154 495,156 528,161 Z"/>
   <glyph unicode="s" horiz-adv-x="875" d="M 63,317 L 241,345 C 251,274 279,219 325,181 370,143 434,124 516,124 599,124 660,141 700,175 740,208 760,248 760,293 760,334 742,366 707,389 682,405 621,425 523,450 391,483 300,512 249,537 198,561 159,595 133,638 106,681 93,728 93,780 93,827 104,871 126,912 147,952 177,985 214,1012 242,1033 280,1050 329,1065 377,1079 429,1086 484,1086 567,1086 641,1074 704,1050 767,1026 813,994 843,953 873,912 894,857 905,788 L 729,764 C 721,819 698,861 660,892 621,923 567,938 497,938 414,938 355,924 320,897 285,870 267,838 267,801 267,778 274,757 289,738 304,719 327,703 358,690 376,683 429,668 517,644 644,610 733,582 784,561 834,539 873,507 902,466 931,425 945,373 945,312 945,252 928,196 893,143 858,90 807,49 741,20 675,-9 600,-24 517,-24 379,-24 274,5 202,62 129,119 83,204 63,317 Z"/>
   <glyph unicode="r" horiz-adv-x="583" d="M 133,0 L 133,1062 295,1062 295,901 C 336,976 375,1026 410,1050 445,1074 483,1086 525,1086 586,1086 647,1067 710,1028 L 648,861 C 604,887 560,900 516,900 477,900 441,888 410,865 379,841 356,808 343,766 323,702 313,632 313,556 L 313,0 133,0 Z"/>
   <glyph unicode="p" horiz-adv-x="927" d="M 135,-407 L 135,1062 299,1062 299,924 C 338,978 381,1019 430,1046 479,1073 538,1086 607,1086 698,1086 778,1063 847,1016 916,969 969,904 1004,819 1039,734 1057,640 1057,539 1057,430 1038,333 999,246 960,159 903,92 829,46 754,-1 676,-24 594,-24 534,-24 480,-11 433,14 385,39 346,71 315,110 L 315,-407 135,-407 Z M 298,525 C 298,388 326,287 381,222 436,157 503,124 582,124 662,124 731,158 788,226 845,293 873,398 873,540 873,675 845,777 790,844 734,911 667,945 590,945 513,945 446,909 387,838 328,766 298,662 298,525 Z"/>
   <glyph unicode="o" horiz-adv-x="980" d="M 68,531 C 68,728 123,873 232,968 323,1047 435,1086 566,1086 712,1086 831,1038 924,943 1017,847 1063,715 1063,546 1063,409 1043,302 1002,224 961,145 901,84 823,41 744,-2 659,-24 566,-24 417,-24 297,24 206,119 114,214 68,352 68,531 Z M 253,531 C 253,395 283,293 342,226 401,158 476,124 566,124 655,124 730,158 789,226 848,294 878,398 878,537 878,668 848,768 789,836 729,903 655,937 566,937 476,937 401,903 342,836 283,769 253,667 253,531 Z"/>
   <glyph unicode="n" horiz-adv-x="874" d="M 135,0 L 135,1062 297,1062 297,911 C 375,1028 488,1086 635,1086 699,1086 758,1075 812,1052 865,1029 905,998 932,961 959,924 977,879 988,828 995,795 998,736 998,653 L 998,0 818,0 818,646 C 818,719 811,774 797,811 783,847 758,876 723,898 687,919 645,930 597,930 520,930 454,906 399,857 343,808 315,716 315,580 L 315,0 135,0 Z"/>
   <glyph unicode="m" horiz-adv-x="1457" d="M 135,0 L 135,1062 296,1062 296,913 C 329,965 374,1007 429,1039 484,1070 547,1086 618,1086 697,1086 761,1070 812,1037 862,1004 897,959 918,900 1002,1024 1111,1086 1246,1086 1351,1086 1432,1057 1489,999 1546,940 1574,850 1574,729 L 1574,0 1395,0 1395,669 C 1395,741 1389,793 1378,825 1366,856 1345,882 1314,901 1283,920 1247,930 1206,930 1131,930 1069,905 1020,856 971,806 946,726 946,617 L 946,0 766,0 766,690 C 766,770 751,830 722,870 693,910 645,930 578,930 527,930 481,917 438,890 395,863 363,824 344,773 325,722 315,648 315,551 L 315,0 135,0 Z"/>
   <glyph unicode="l" horiz-adv-x="187" d="M 131,0 L 131,1466 311,1466 311,0 131,0 Z"/>
   <glyph unicode="i" horiz-adv-x="187" d="M 136,1259 L 136,1466 316,1466 316,1259 136,1259 Z M 136,0 L 136,1062 316,1062 316,0 136,0 Z"/>
   <glyph unicode="f" horiz-adv-x="636" d="M 178,0 L 178,922 19,922 19,1062 178,1062 178,1175 C 178,1246 184,1299 197,1334 214,1381 245,1419 289,1448 332,1477 393,1491 472,1491 523,1491 579,1485 640,1473 L 613,1316 C 576,1323 540,1326 507,1326 452,1326 414,1314 391,1291 368,1268 357,1224 357,1160 L 357,1062 564,1062 564,922 357,922 357,0 178,0 Z"/>
   <glyph unicode="e" horiz-adv-x="980" d="M 862,342 L 1048,319 C 1019,210 964,126 885,66 806,6 704,-24 581,-24 426,-24 303,24 212,120 121,215 75,349 75,522 75,701 121,839 213,938 305,1037 424,1086 571,1086 713,1086 829,1038 919,941 1009,844 1054,708 1054,533 1054,522 1054,506 1053,485 L 261,485 C 268,368 301,279 360,217 419,155 493,124 582,124 648,124 704,141 751,176 798,211 835,266 862,342 Z M 271,633 L 864,633 C 856,722 833,789 796,834 739,903 664,938 573,938 490,938 421,910 365,855 308,800 277,726 271,633 Z"/>
   <glyph unicode="c" horiz-adv-x="954" d="M 828,389 L 1005,366 C 986,244 936,149 857,80 777,11 679,-24 563,-24 418,-24 301,24 213,119 124,214 80,350 80,527 80,642 99,742 137,828 175,914 233,979 311,1022 388,1065 473,1086 564,1086 679,1086 774,1057 847,999 920,940 967,857 988,750 L 813,723 C 796,794 767,848 725,884 682,920 631,938 571,938 480,938 407,906 350,841 293,776 265,673 265,532 265,389 292,286 347,221 402,156 473,124 561,124 632,124 691,146 738,189 785,232 815,299 828,389 Z"/>
   <glyph unicode="b" horiz-adv-x="927" d="M 301,0 L 134,0 134,1466 314,1466 314,943 C 390,1038 487,1086 605,1086 670,1086 732,1073 791,1047 849,1020 897,983 935,936 972,888 1002,830 1023,763 1044,696 1055,624 1055,547 1055,365 1010,224 920,125 830,26 722,-24 596,-24 471,-24 372,28 301,133 L 301,0 Z M 299,539 C 299,412 316,320 351,263 408,170 484,124 581,124 660,124 728,158 785,227 842,295 871,397 871,532 871,671 844,773 789,839 734,905 667,938 589,938 510,938 442,904 385,836 328,767 299,668 299,539 Z"/>
   <glyph unicode="a" horiz-adv-x="980" d="M 828,131 C 761,74 697,34 636,11 574,-12 508,-24 437,-24 320,-24 231,5 168,62 105,119 74,191 74,280 74,332 86,380 110,423 133,466 164,500 203,526 241,552 284,572 332,585 367,594 421,603 492,612 637,629 744,650 813,674 814,699 814,714 814,721 814,794 797,846 763,876 717,917 649,937 558,937 473,937 411,922 371,893 330,863 300,810 281,735 L 105,759 C 121,834 147,895 184,942 221,988 274,1024 343,1049 412,1074 493,1086 584,1086 675,1086 748,1075 805,1054 862,1033 903,1006 930,974 957,941 975,900 986,851 992,820 995,765 995,685 L 995,445 C 995,278 999,172 1007,128 1014,83 1029,41 1052,0 L 864,0 C 845,37 833,81 828,131 Z M 813,533 C 748,506 650,484 519,465 445,454 393,442 362,429 331,416 308,396 291,371 274,345 266,316 266,285 266,237 284,197 321,165 357,133 410,117 480,117 549,117 611,132 665,163 719,193 759,234 784,287 803,328 813,388 813,467 L 813,533 Z"/>
   <glyph unicode="Q" horiz-adv-x="1377" d="M 1269,157 C 1359,95 1442,50 1518,21 L 1461,-114 C 1356,-76 1251,-16 1146,66 1037,5 917,-25 786,-25 653,-25 533,7 425,71 317,135 234,225 176,341 117,457 88,588 88,733 88,878 117,1009 176,1128 235,1247 318,1337 427,1399 535,1461 656,1492 790,1492 925,1492 1047,1460 1156,1396 1265,1331 1348,1241 1405,1126 1462,1010 1490,879 1490,734 1490,613 1472,505 1435,409 1398,312 1343,228 1269,157 Z M 842,405 C 954,374 1046,327 1119,265 1233,369 1290,525 1290,734 1290,853 1270,956 1230,1045 1189,1134 1130,1203 1053,1252 975,1301 888,1325 791,1325 646,1325 526,1276 431,1177 336,1078 288,930 288,733 288,542 335,396 430,294 524,192 644,141 791,141 860,141 926,154 987,180 926,219 862,247 795,264 L 842,405 Z"/>
   <glyph unicode="L" horiz-adv-x="927" d="M 150,0 L 150,1466 344,1466 344,173 1066,173 1066,0 150,0 Z"/>
   <glyph unicode="C" horiz-adv-x="1271" d="M 1204,514 L 1398,465 C 1357,306 1284,184 1179,101 1073,17 944,-25 791,-25 633,-25 505,7 406,72 307,136 231,229 180,351 128,473 102,604 102,744 102,897 131,1030 190,1144 248,1257 331,1344 439,1403 546,1462 665,1491 794,1491 941,1491 1064,1454 1164,1379 1264,1304 1334,1199 1373,1064 L 1182,1019 C 1148,1126 1099,1203 1034,1252 969,1301 888,1325 790,1325 677,1325 583,1298 508,1244 432,1190 379,1118 348,1027 317,936 302,842 302,745 302,620 320,512 357,419 393,326 449,256 526,210 603,164 686,141 775,141 884,141 976,172 1051,235 1126,298 1177,391 1204,514 Z"/>
   <glyph unicode="A" horiz-adv-x="1403" d="M -3,0 L 560,1466 769,1466 1369,0 1148,0 977,444 364,444 203,0 -3,0 Z M 420,602 L 917,602 764,1008 C 717,1131 683,1233 660,1312 641,1218 615,1125 581,1032 L 420,602 Z"/>
   <glyph unicode=" " horiz-adv-x="556"/>
  </font>
 </defs>
 <defs class="TextShapeIndex">
  <g ooo:slide="id1" ooo:id-list="id3 id4 id5 id6 id7 id8 id9 id10 id11 id12 id13 id14"/>
 </defs>
 <defs class="EmbeddedBulletChars">
  <g id="bullet-char-template(57356)" transform="scale(0.00048828125,-0.00048828125)">
   <path d="M 580,1141 L 1163,571 580,0 -4,571 580,1141 Z"/>
  </g>
  <g id="bullet-char-template(57354)" transform="scale(0.00048828125,-0.00048828125)">
   <path d="M 8,1128 L 1137,1128 1137,0 8,0 8,1128 Z"/>
  </g>
  <g id="bullet-char-template(10146)" transform="scale(0.00048828125,-0.00048828125)">
   <path d="M 174,0 L 602,739 174,1481 1456,739 174,0 Z M 1358,739 L 309,1346 659,739 1358,739 Z"/>
  </g>
  <g id="bullet-char-template(10132)" transform="scale(0.00048828125,-0.00048828125)">
   <path d="M 2015,739 L 1276,0 717,0 1260,543 174,543 174,936 1260,936 717,1481 1274,1481 2015,739 Z"/>
  </g>
  <g id="bullet-char-template(10007)" transform="scale(0.00048828125,-0.00048828125)">
   <path d="M 0,-2 C -7,14 -16,27 -25,37 L 356,567 C 262,823 215,952 215,954 215,979 228,992 255,992 264,992 276,990 289,987 310,991 331,999 354,1012 L 381,999 492,748 772,1049 836,1024 860,1049 C 881,1039 901,1025 922,1006 886,937 835,863 770,784 769,783 710,716 594,584 L 774,223 C 774,196 753,168 711,139 L 727,119 C 717,90 699,76 672,76 641,76 570,178 457,381 L 164,-76 C 142,-110 111,-127 72,-127 30,-127 9,-110 8,-76 1,-67 -2,-52 -2,-32 -2,-23 -1,-13 0,-2 Z"/>
  </g>
  <g id="bullet-char-template(10004)" transform="scale(0.00048828125,-0.00048828125)">
   <path d="M 285,-33 C 182,-33 111,30 74,156 52,228 41,333 41,471 41,549 55,616 82,672 116,743 169,778 240,778 293,778 328,747 346,684 L 369,508 C 377,444 397,411 428,410 L 1163,1116 C 1174,1127 1196,1133 1229,1133 1271,1133 1292,1118 1292,1087 L 1292,965 C 1292,929 1282,901 1262,881 L 442,47 C 390,-6 338,-33 285,-33 Z"/>
  </g>
  <g id="bullet-char-template(9679)" transform="scale(0.00048828125,-0.00048828125)">
   <path d="M 813,0 C 632,0 489,54 383,161 276,268 223,411 223,592 223,773 276,916 383,1023 489,1130 632,1184 813,1184 992,1184 1136,1130 1245,1023 1353,916 1407,772 1407,592 1407,412 1353,268 1245,161 1136,54 992,0 813,0 Z"/>
  </g>
  <g id="bullet-char-template(8226)" transform="scale(0.00048828125,-0.00048828125)">
   <path d="M 346,457 C 273,457 209,483 155,535 101,586 74,649 74,723 74,796 101,859 155,911 209,963 273,989 346,989 419,989 480,963 531,910 582,859 608,796 608,723 608,648 583,586 532,535 482,483 420,457 346,457 Z"/>
  </g>
  <g id="bullet-char-template(8211)" transform="scale(0.00048828125,-0.00048828125)">
   <path d="M -4,459 L 1135,459 1135,606 -4,606 -4,459 Z"/>
  </g>
 </defs>
 <defs class="TextEmbeddedBitmaps"/>
 <g class="SlideGroup">
  <g>
   <g id="id1" class="Slide" clip-path="url(#presentation_clip_path)">
    <g class="Page">
     <g class="com.sun.star.drawing.LineShape">
      <g id="id3">
       <path fill="none" stroke="rgb(0,0,0)" d="M 3540,13192 L 3540,5240"/>
       <path fill="rgb(0,0,0)" stroke="none" d="M 3540,4810 L 3390,5260 3690,5260 3540,4810 Z"/>
      </g>
     </g>
     <g class="com.sun.star.drawing.LineShape">
      <g id="id4">
       <path fill="none" stroke="rgb(0,0,0)" d="M 2866,12467 L 17410,12467"/>
       <path fill="rgb(0,0,0)" stroke="none" d="M 17840,12467 L 17390,12317 17390,12617 17840,12467 Z"/>
      </g>
     </g>
     <g class="com.sun.star.drawing.TextShape">
      <g id="id5">
       <text class="TextShape"><tspan class="TextParagraph" font-family="Arial, sans-serif" font-size="635px" font-weight="400"><tspan class="TextPosition" x="15003" y="13168"/><tspan class="TextPosition" x="15003" y="13168"><tspan fill="rgb(0,0,0)" stroke="none">Quantity</tspan></tspan></tspan></text>
      </g>
     </g>
     <g class="com.sun.star.drawing.TextShape">
      <g id="id6">
       <text class="TextShape" transform="translate(2929,7894) rotate(-90) translate(-2929,-7894)"><tspan class="TextParagraph" font-family="Arial, sans-serif" font-size="635px" font-weight="400"><tspan class="TextPosition" x="2929" y="7894"/><tspan class="TextPosition" x="2929" y="7894"><tspan fill="rgb(0,0,0)" stroke="none">Complexity</tspan></tspan></tspan></text>
      </g>
     </g>
     <g class="Group">
      <g class="com.sun.star.drawing.CustomShape">
       <g id="id7">
        <path fill="rgb(204,255,255)" stroke="none" d="M 6714,11145 C 7566,11145 8218,11345 8218,11606 8218,11867 7566,12067 6714,12067 5862,12067 5211,11867 5211,11606 5211,11345 5862,11145 6714,11145 Z M 5211,11145 L 5211,11145 Z M 8219,12068 L 8219,12068 Z"/>
        <path fill="none" stroke="rgb(52,101,164)" d="M 6714,11145 C 7566,11145 8218,11345 8218,11606 8218,11867 7566,12067 6714,12067 5862,12067 5211,11867 5211,11606 5211,11345 5862,11145 6714,11145 Z"/>
        <path fill="none" stroke="rgb(52,101,164)" d="M 5211,11145 L 5211,11145 Z"/>
        <path fill="none" stroke="rgb(52,101,164)" d="M 8219,12068 L 8219,12068 Z"/>
       </g>
      </g>
      <g class="com.sun.star.drawing.TextShape">
       <g id="id8">
        <text class="TextShape"><tspan class="TextParagraph" font-family="Arial, sans-serif" font-size="635px" font-weight="400"><tspan class="TextPosition" x="5903" y="11845"/><tspan class="TextPosition" x="5903" y="11845"><tspan fill="rgb(0,0,0)" stroke="none">twitter</tspan></tspan></tspan></text>
       </g>
      </g>
     </g>
     <g class="Group">
      <g class="com.sun.star.drawing.CustomShape">
       <g id="id9">
        <path fill="rgb(204,255,255)" stroke="none" d="M 10482,10786 C 11334,10786 11986,10986 11986,11247 11986,11508 11334,11708 10482,11708 9630,11708 8979,11508 8979,11247 8979,10986 9630,10786 10482,10786 Z M 8979,10786 L 8979,10786 Z M 11987,11709 L 11987,11709 Z"/>
        <path fill="none" stroke="rgb(52,101,164)" d="M 10482,10786 C 11334,10786 11986,10986 11986,11247 11986,11508 11334,11708 10482,11708 9630,11708 8979,11508 8979,11247 8979,10986 9630,10786 10482,10786 Z"/>
        <path fill="none" stroke="rgb(52,101,164)" d="M 8979,10786 L 8979,10786 Z"/>
        <path fill="none" stroke="rgb(52,101,164)" d="M 11987,11709 L 11987,11709 Z"/>
       </g>
      </g>
      <g class="com.sun.star.drawing.TextShape">
       <g id="id10">
        <text class="TextShape"><tspan class="TextParagraph" font-family="Arial, sans-serif" font-size="635px" font-weight="400"><tspan class="TextPosition" x="9470" y="11444"/><tspan class="TextPosition" x="9470" y="11444"><tspan fill="rgb(0,0,0)" stroke="none">youtube</tspan></tspan></tspan></text>
       </g>
      </g>
     </g>
     <g class="Group">
      <g class="com.sun.star.drawing.CustomShape">
       <g id="id11">
        <path fill="rgb(150,253,128)" stroke="none" d="M 12688,8178 C 13927,8178 14873,8378 14873,8639 14873,8900 13927,9100 12688,9100 11449,9100 10503,8900 10503,8639 10503,8378 11449,8178 12688,8178 Z M 10503,8178 L 10503,8178 Z M 14874,9101 L 14874,9101 Z"/>
        <path fill="none" stroke="rgb(0,174,0)" d="M 12688,8178 C 13927,8178 14873,8378 14873,8639 14873,8900 13927,9100 12688,9100 11449,9100 10503,8900 10503,8639 10503,8378 11449,8178 12688,8178 Z"/>
        <path fill="none" stroke="rgb(0,174,0)" d="M 10503,8178 L 10503,8178 Z"/>
        <path fill="none" stroke="rgb(0,174,0)" d="M 14874,9101 L 14874,9101 Z"/>
       </g>
      </g>
      <g class="com.sun.star.drawing.TextShape">
       <g id="id12">
        <text class="TextShape"><tspan class="TextParagraph" font-family="Arial, sans-serif" font-size="635px" font-weight="400"><tspan class="TextPosition" x="11155" y="8879"/><tspan class="TextPosition" x="11155" y="8879"><tspan fill="rgb(0,0,0)" stroke="none">Astronomy</tspan></tspan></tspan></text>
       </g>
      </g>
     </g>
     <g class="Group">
      <g class="com.sun.star.drawing.CustomShape">
       <g id="id13">
        <path fill="rgb(254,177,177)" stroke="none" d="M 14212,6134 C 15837,6134 17078,6386 17078,6715 17078,7044 15837,7296 14212,7296 12587,7296 11346,7044 11346,6715 11346,6386 12587,6134 14212,6134 Z M 11346,6134 L 11346,6134 Z M 17079,7297 L 17079,7297 Z"/>
        <path fill="none" stroke="rgb(255,0,0)" d="M 14212,6134 C 15837,6134 17078,6386 17078,6715 17078,7044 15837,7296 14212,7296 12587,7296 11346,7044 11346,6715 11346,6386 12587,6134 14212,6134 Z"/>
        <path fill="none" stroke="rgb(255,0,0)" d="M 11346,6134 L 11346,6134 Z"/>
        <path fill="none" stroke="rgb(255,0,0)" d="M 17079,7297 L 17079,7297 Z"/>
       </g>
      </g>
      <g class="com.sun.star.drawing.TextShape">
       <g id="id14">
        <text class="TextShape"><tspan class="TextParagraph" font-family="Arial, sans-serif" font-size="635px" font-weight="400"><tspan class="TextPosition" x="12558" y="6955"/><tspan class="TextPosition" x="12558" y="6955"><tspan fill="rgb(0,0,0)" stroke="none">Life science</tspan></tspan></tspan></text>
       </g>
      </g>
     </g>
    </g>
   </g>
  </g>
 </g>
</svg>