{
  "type": "chromosome",
  "ident": "chr1",
  "regions": [
    {
      "type": "gene",
      "ident": "gene1",
      "start": 5,
      "end": 12
    },
    {
      "type": "gene",
      "ident": "gene3",
      "start": 17,
      "end": 63
    }
  ]
}
