Instrument	category
harp	stringInstrument
piano	stringInstrument
guitar	stringInstrument
drum	percussionInstrument
violin	stringInstrument
bass	stringInstrument
xylophon	percussionInstrument
bagpipes	windInstrument
flute	windInstrument
tinWhistle	windInstrument
ukulele	stringInstrument
violinAlto	stringInstrument
